<?xml version="1.0" encoding="utf-8"?>
<!-- Generator: Adobe Illustrator 23.0.6, SVG Export Plug-In . SVG Version: 6.00 Build 0)  -->
<svg version="1.1" xmlns="http://www.w3.org/2000/svg" xmlns:xlink="http://www.w3.org/1999/xlink" x="0px" y="0px"
	 viewBox="0 0 144.91 144.91" style="enable-background:new 0 0 144.91 144.91;" xml:space="preserve">
<style type="text/css">
	.st0{clip-path:url(#XMLID_2_);fill:#975658;}
	.st1{clip-path:url(#XMLID_2_);fill:#FAE77A;}
	.st2{clip-path:url(#XMLID_2_);fill:#F5AE90;}
	.st3{clip-path:url(#XMLID_2_);fill:#F39274;}
	.st4{clip-path:url(#XMLID_2_);fill:#783A3C;}
	.st5{clip-path:url(#XMLID_2_);fill:#FDFBF6;}
	.st6{clip-path:url(#XMLID_2_);fill:#7D3E40;}
	.st7{clip-path:url(#XMLID_2_);fill:#A95354;}
	.st8{clip-path:url(#XMLID_2_);fill:#AA5354;}
	.st9{clip-path:url(#XMLID_2_);fill:#A05B58;}
	.st10{clip-path:url(#XMLID_2_);fill:#EA6E5F;}
	.st11{clip-path:url(#XMLID_2_);fill:#EB7363;}
	.st12{clip-path:url(#XMLID_2_);fill:#EB7464;}
</style>
<g id="Ref">
</g>
<g id="Guias">
</g>
<g id="Layer_4">
</g>
<g id="Layer_1">
	<g>
		<defs>
			<circle id="XMLID_5_" cx="72.45" cy="72.45" r="72.45"/>
		</defs>
		<use xlink:href="#XMLID_5_"  style="overflow:visible;fill:#48A295;"/>
		<clipPath id="XMLID_2_">
			<use xlink:href="#XMLID_5_"  style="overflow:visible;"/>
		</clipPath>
		<path class="st0" d="M38.6,136.18c-3.33-5.27-4.48-11.03-4.43-17.24c0.17-21.69-1.15-43.4,0.84-65.08
			c0.47-5.11,1.53-10.04,3.38-14.82c5.19-13.4,15-20.87,28.58-21.01c14.3-0.15,25.05,6.17,31.44,19.13
			c3.72,7.54,5.44,15.82,5.59,24.08c0.32,17.47,2.87,34.52,7.36,51.35c1.43,5.35,0.96,10.46-1.81,15.31
			c-1.9,0.68-2.72-0.71-3.52-1.94c-2.79-4.25-6.55-7.59-10.3-10.92c-0.91-0.62-1.95-0.95-2.95-1.38
			c-9.44-4.46-10.23-12.99-10.3-21.86c0.33-3.13,2.37-5.5,3.72-8.17c1.12-2.23,2.81-3.1,5.41-3.27c5.9-0.38,9.67-7.02,7.25-12.41
			c-1.39-3.1-3.86-3.9-7.03-2.84c-7.3,2.46-9.59,1.72-13.6-4.91c-2.05-3.39-3.92-6.88-6.2-10.14c-1.08-1.55-2.25-3.01-3.59-4.36
			c-2.85-2.88-5.22-3.3-7.46,0.78c-3.23,5.88-9.12,8.87-14.34,12.55c-1.17,0.83-2.64,1.64-4.11,0.28
			c-1.24-3.73-0.77-7.35,0.51-10.94c-1.52,4.6-1.6,9.4-1.83,14.2c-0.18,9.16,0.16,18.25,2.58,27.15c0.13,11.23,1.73,22.23,4.96,33
			c1.21,2.74,2.69,5.36,3.6,8.21c1.09,3.42,2.43,7.24-1.49,9.58c-3.59,2.14-7.24,0.76-10.46-1.54
			C39.48,138.28,38.96,137.27,38.6,136.18z"/>
		<path class="st1" d="M96.72,114.13c5.21,3.72,8.75,8.99,12.84,13.76c1.7,6.32-2.01,9.41-7.08,11.41
			c-18.78,7.4-37.92,10.47-57.66,4.12c-3.34-1.08-7.11-2.28-6.21-7.23c2.68,1.7,5.2,3.73,8.56,3.96c4.31,0.3,6.16-1.66,4.84-5.78
			c-1.25-3.91-3.07-7.64-4.63-11.45c1.33-3.22,4.1-4.66,7.12-5.79c2.26,2.08,4.87,3.56,7.87,4.23c3.87,0.87,4.64,2.8,2.14,5.98
			c4.05-5.15,4.81-5.12,8.24,0.29c-0.32-0.69,0.23,0.26,0.18,0.19c-2.22-3.39-2.69-5.89,2.57-6.26
			C83.24,121.02,89.48,116.12,96.72,114.13z"/>
		<path class="st2" d="M42.99,90.23c-4.34-8.97-2.92-18.62-3.27-28.06c0.78-1.32,1.69-2.46,3.43-2.43
			c7.07-4.9,14.93-8.96,18.74-17.38c1.11-2.46,2.54-1.33,4.05-0.4c5.2,3.19,8.05,8.3,11.08,13.29c1.46,2.4,2.78,4.94,4.55,7.1
			c2.45,2.99,4.77,5.49,9.13,1.56c2.89-2.6,7-1.62,9.09,2.21c2.16,3.94,1.48,8.02-0.74,11.8c-1.87,3.19-4.49,5.19-8.4,3.81
			c-1.8-0.64-2.35,0.29-2.98,1.55c-1.34,2.68-2.72,5.34-4.08,8.01c-4.18,5.75-10.48,7.66-16.9,9.38c-7.8,2.48-14.44,0.08-20.43-4.9
			C44.56,94.34,42.7,92.9,42.99,90.23z"/>
		<path class="st3" d="M66.51,99.52c6.34-1.43,11.65-4.96,17.1-8.23c0.53,3.89,0.9,7.81,1.63,11.67c0.96,5.11,4.68,7.94,9.03,10.13
			c-0.11,2.72-2.53,3.09-4.26,3.96c-8.25,4.17-16.99,6.11-26.21,4.71c-2.68-0.41-5.67-0.84-7.37-3.57c0.05-2.6,2.17-3.52,3.99-4.22
			c5.4-2.07,7.07-5.77,5.63-11.2C65.74,101.69,65.79,100.53,66.51,99.52z"/>
		<path class="st4" d="M66.51,99.52c0.2,0.73,0.37,1.46,0.59,2.18c2.46,8.13,1.92,9.38-5.58,13.16c-1.67,0.84-3.3,1.77-4.95,2.66
			c-0.76,0.63-1.59,0.6-2.45,0.24c-1.48,2.71-4.54,3.37-6.74,5.15c-3.29-10.65-5.82-21.41-4.38-32.69
			C49.07,97.79,56.44,102.06,66.51,99.52z"/>
		<path class="st5" d="M54.11,117.77c0.82-0.08,1.63-0.16,2.45-0.24c9.8,5.98,19.7,3.27,29.53,0.2c2.98-0.93,5.98-2.15,8.17-4.64
			c1.04-0.17,2.09-0.38,2.45,1.04c-7.06,5.8-15.47,8.1-24.45,9.33c0.7,2.94,3.32,5.09,3.12,8.37c-3.04-0.14-2.77-2.88-3.94-4.34
			c-0.79-0.99-0.98-2.75-2.46-2.83c-1.78-0.1-2.35,1.62-3.03,2.92c-0.75,1.44-0.84,3.29-3.02,4.3c-1.38-3.41,1.96-5.48,2.06-8.23
			C61.29,121.81,56.18,122.62,54.11,117.77z"/>
		<path class="st6" d="M43.16,59.75c-0.82,1.27-2.01,2.01-3.43,2.42c-0.29-5.79,1.63-11.09,3.76-16.45
			C43.01,50.44,42.89,55.09,43.16,59.75z"/>
		<path class="st7" d="M46.03,61.63c1.46,0.11,3.36-0.09,3.66,1.74c0.28,1.75,0.35,3.94-0.47,5.36c-0.96,1.64-3,1.68-3.67-0.65
			c-0.47-1.65,0.3-3.96-2.78-3.43c-0.11,0.02-0.65-0.98-0.51-1.3C42.98,61.74,44.53,61.7,46.03,61.63z"/>
		<path class="st8" d="M70.02,61.55c1.69,0.23,4.35-0.12,4.03,2.42c-0.23,1.87,0.47,5.34-2.66,5.46c-3.58,0.13-1.38-5.65-5.14-5.97
			C66.86,61.6,68.5,61.78,70.02,61.55z"/>
		<path class="st9" d="M76.64,57.5c-5.04,2.03-8.85-1.47-12.75-0.58C67.82,54.06,71.68,55.41,76.64,57.5z"/>
		<path class="st10" d="M54.57,82.76c2.91,0.02,5.58,1.6,8.99-1.72C60.76,86.79,57.91,86.91,54.57,82.76z"/>
		<path class="st11" d="M91.14,73.91c0.1-3.37,1.29-5.5,5.73-4.64C94.52,71.18,92.83,72.54,91.14,73.91z"/>
		<path class="st12" d="M58.34,77.23c-0.04,1.32-0.78,1.5-1.48,1.54c-1.16,0.06-2.17-0.28-2.28-1.67c-0.07-0.86,0.52-1.49,1.27-1.27
			C56.79,76.11,57.62,76.81,58.34,77.23z"/>
	</g>
</g>
</svg>
