<?xml version="1.0" encoding="utf-8"?>
<!-- Generator: Adobe Illustrator 23.0.6, SVG Export Plug-In . SVG Version: 6.00 Build 0)  -->
<svg version="1.1" id="Camada_1" xmlns="http://www.w3.org/2000/svg" xmlns:xlink="http://www.w3.org/1999/xlink" x="0px" y="0px"
	 viewBox="0 0 333 89" style="enable-background:new 0 0 333 89;" xml:space="preserve">
<style type="text/css">
	.st0{fill:#D6060B;}
	.st1{enable-background:new    ;}
	.st2{fill:#FFFFFF;}
</style>
<g>
	<g>
		<g>
			<path class="st0" d="M307.2-0.1h-51c-14.1,0-25.5,11.4-25.5,25.5v25.5v38.2c0-7,5.7-12.8,12.8-12.8h63.7
				c14.1,0,25.5-11.4,25.5-25.5V25.4C332.7,11.3,321.3-0.1,307.2-0.1z"/>
		</g>
	</g>
	<g class="st1">
		<path class="st0" d="M2.3,42.4c0-7.8,5.9-13.5,13.9-13.5c3.9,0,7.4,1.3,9.7,3.9l-1.8,1.8c-2.2-2.2-4.8-3.2-7.9-3.2
			C9.9,31.4,5,36.1,5,42.4c0,6.3,4.8,11,11.2,11c3,0,5.7-1,7.9-3.2l1.8,1.8c-2.4,2.6-5.9,3.9-9.8,3.9C8.2,55.9,2.3,50.2,2.3,42.4z"
			/>
		<path class="st0" d="M28.5,45.7c0-5.9,4.3-10.1,10.2-10.1s10.1,4.2,10.1,10.1c0,5.9-4.3,10.2-10.1,10.2S28.5,51.6,28.5,45.7z
			 M46.1,45.7c0-4.7-3.2-7.8-7.4-7.8s-7.4,3.1-7.4,7.8c0,4.7,3.2,7.8,7.4,7.8S46.1,50.4,46.1,45.7z"/>
		<path class="st0" d="M72.7,44.1v11.6H70V44.3c0-4.2-2.2-6.4-6-6.4c-4.3,0-7,2.7-7,7.2v10.5h-2.7v-20h2.6v3.7
			c1.4-2.4,4.1-3.8,7.6-3.8C69.4,35.5,72.7,38.3,72.7,44.1z"/>
		<path class="st0" d="M83.1,33.3v2.4h6.2V38h-6.1v17.7h-2.7V38h-3.6v-2.3h3.6v-2.5c0-3.6,2.1-5.9,6-5.9c1.5,0,3,0.4,4,1.3l-0.9,2
			c-0.8-0.6-1.8-1-3-1C84.3,29.6,83.1,30.9,83.1,33.3z"/>
		<path class="st0" d="M110,46.5H93.3c0.3,4.2,3.5,7,7.9,7c2.4,0,4.6-0.9,6.1-2.6l1.5,1.7c-1.8,2.1-4.6,3.3-7.7,3.3
			c-6.2,0-10.5-4.3-10.5-10.2c0-5.9,4.1-10.1,9.8-10.1s9.7,4.1,9.7,10.1C110,45.9,110,46.2,110,46.5z M93.3,44.5h14.2
			c-0.3-3.9-3.2-6.6-7.1-6.6C96.5,37.9,93.6,40.6,93.3,44.5z"/>
		<path class="st0" d="M125.6,35.5v2.6c-0.2,0-0.5,0-0.6,0c-4.2,0-6.7,2.7-6.7,7.4v10.2h-2.7v-20h2.6v3.9
			C119.4,36.9,121.9,35.5,125.6,35.5z"/>
		<path class="st0" d="M147.7,46.5H131c0.3,4.2,3.5,7,7.9,7c2.4,0,4.6-0.9,6.1-2.6l1.5,1.7c-1.8,2.1-4.6,3.3-7.7,3.3
			c-6.2,0-10.5-4.3-10.5-10.2c0-5.9,4.1-10.1,9.8-10.1s9.7,4.1,9.7,10.1C147.7,45.9,147.7,46.2,147.7,46.5z M131,44.5h14.2
			c-0.3-3.9-3.2-6.6-7.1-6.6C134.2,37.9,131.3,40.6,131,44.5z"/>
		<path class="st0" d="M171.6,44.1v11.6h-2.7V44.3c0-4.2-2.2-6.4-6-6.4c-4.3,0-7,2.7-7,7.2v10.5h-2.7v-20h2.6v3.7
			c1.4-2.4,4.1-3.8,7.6-3.8C168.3,35.5,171.6,38.3,171.6,44.1z"/>
		<path class="st0" d="M177,45.7c0-6,4.3-10.1,10.3-10.1c3.4,0,6.2,1.3,7.8,4l-2,1.4c-1.4-2-3.5-3-5.8-3c-4.4,0-7.6,3.1-7.6,7.8
			c0,4.7,3.2,7.8,7.6,7.8c2.3,0,4.4-0.9,5.8-2.9l2,1.4c-1.6,2.6-4.4,4-7.8,4C181.4,55.9,177,51.6,177,45.7z"/>
		<path class="st0" d="M199.8,29.4c0-1,0.9-1.9,2-1.9c1.1,0,2,0.8,2,1.9c0,1.1-0.8,2-2,2C200.7,31.3,199.8,30.4,199.8,29.4z
			 M200.4,35.7h2.7v20h-2.7V35.7z"/>
		<path class="st0" d="M225.7,43.3v12.4h-2.6v-3.1c-1.2,2.1-3.6,3.3-6.9,3.3c-4.5,0-7.3-2.4-7.3-5.8c0-3.1,2-5.7,7.7-5.7h6.3v-1.2
			c0-3.4-1.9-5.3-5.7-5.3c-2.6,0-5,0.9-6.6,2.4l-1.2-2c2-1.7,5-2.7,8.1-2.7C222.8,35.5,225.7,38.1,225.7,43.3z M223,49.7v-3.3h-6.3
			c-3.9,0-5.1,1.5-5.1,3.6c0,2.3,1.9,3.8,5.1,3.8C219.7,53.7,222,52.3,223,49.7z"/>
	</g>
	<g class="st1">
		<path class="st2" d="M235.8,42.4c0-7.8,5.9-13.5,13.9-13.5c3.9,0,7.4,1.3,9.7,3.9l-1.8,1.8c-2.2-2.2-4.8-3.2-7.9-3.2
			c-6.4,0-11.2,4.7-11.2,11c0,6.3,4.8,11,11.2,11c3,0,5.7-1,7.9-3.2l1.8,1.8c-2.4,2.6-5.9,3.9-9.8,3.9
			C241.7,55.9,235.8,50.2,235.8,42.4z"/>
		<path class="st2" d="M262,45.7c0-5.9,4.3-10.1,10.2-10.1c5.9,0,10.1,4.2,10.1,10.1c0,5.9-4.3,10.2-10.1,10.2
			C266.3,55.9,262,51.6,262,45.7z M279.6,45.7c0-4.7-3.2-7.8-7.4-7.8c-4.3,0-7.4,3.1-7.4,7.8c0,4.7,3.2,7.8,7.4,7.8
			C276.5,53.5,279.6,50.4,279.6,45.7z"/>
		<path class="st2" d="M297.9,35.5v2.6c-0.2,0-0.5,0-0.6,0c-4.2,0-6.7,2.7-6.7,7.4v10.2h-2.7v-20h2.6v3.9
			C291.7,36.9,294.2,35.5,297.9,35.5z"/>
		<path class="st2" d="M323,45.7c0,6.1-4.3,10.2-10,10.2c-3.2,0-5.9-1.4-7.6-4V63h-2.7V35.7h2.6v4c1.6-2.7,4.4-4.1,7.7-4.1
			C318.8,35.5,323,39.6,323,45.7z M320.3,45.7c0-4.6-3.2-7.8-7.4-7.8c-4.3,0-7.4,3.2-7.4,7.8c0,4.7,3.2,7.8,7.4,7.8
			C317.1,53.5,320.3,50.4,320.3,45.7z"/>
	</g>
</g>
</svg>
